simu/wave.vcd
$date
	Wed Mar 11 21:52:11 2026
$end

$version
	Synopsys VCS version L-2016.06_Full64
$end

$timescale
	1s
$end

$comment Csum: 1 f7e8fe7585dfc912 $end


$scope module testbench_top $end
$var reg 1 ! clk $end
$var reg 1 " rst $end

$scope begin unnamed$$_vcs_3 $end
$upscope $end


$scope begin unnamed$$_vcs_0 $end
$upscope $end


$scope begin unnamed$$_vcs_1 $end
$upscope $end


$scope begin unnamed$$_vcs_2 $end
$upscope $end


$scope begin unnamed$$_vcs_4 $end
$upscope $end


$scope begin unnamed$$_vcs_5 $end
$upscope $end


$scope module intf $end
$var reg 1 # clk_i $end
$var reg 1 $ rst_i $end
$var reg 1 % awvalid_i $end
$var reg 32 & awaddr_i [31:0] $end
$var reg 1 ' awready_o $end
$var reg 1 ( wvalid_i $end
$var reg 32 ) wdata_i [31:0] $end
$var reg 4 * wstrb_i [3:0] $end
$var reg 1 + wready_o $end
$var reg 1 , bready_i $end
$var reg 1 - bvalid_o $end
$var reg 2 . bresp_o [1:0] $end
$var reg 1 / arvalid_i $end
$var reg 32 0 araddr_i [31:0] $end
$var reg 1 1 rready_i $end
$var reg 1 2 arready_o $end
$var reg 1 3 rvalid_o $end
$var reg 32 4 rdata_o [31:0] $end
$var reg 2 5 rresp_o [1:0] $end
$var reg 1 6 miso_i $end
$var reg 1 7 clk_o $end
$var reg 1 8 cs_o $end
$var reg 1 9 mosi_o $end
$var reg 1 : intr_o $end
$upscope $end


$scope module dut $end
$var wire 1 ; clk_i $end
$var wire 1 < rst_i $end
$var wire 1 = cfg_awvalid_i $end
$var wire 32 > cfg_awaddr_i [31:0] $end
$var wire 1 ? cfg_wvalid_i $end
$var wire 32 @ cfg_wdata_i [31:0] $end
$var wire 4 A cfg_wstrb_i [3:0] $end
$var wire 1 B cfg_bready_i $end
$var wire 1 C cfg_arvalid_i $end
$var wire 32 D cfg_araddr_i [31:0] $end
$var wire 1 E cfg_rready_i $end
$var wire 1 F spi_miso_i $end
$var wire 1 G cfg_awready_o $end
$var wire 1 H cfg_wready_o $end
$var wire 1 I cfg_bvalid_o $end
$var wire 2 J cfg_bresp_o [1:0] $end
$var wire 1 K cfg_arready_o $end
$var wire 1 L cfg_rvalid_o $end
$var wire 32 M cfg_rdata_o [31:0] $end
$var wire 2 N cfg_rresp_o [1:0] $end
$var wire 1 O spi_clk_o $end
$var wire 1 P spi_mosi_o $end
$var wire 1 Q spi_cs_o $end
$var wire 1 R intr_o $end
$var reg 32 S wr_data_q [31:0] $end
$var wire 1 T read_en_w $end
$var wire 1 U write_en_w $end
$var reg 1 V spi_dgier_wr_q $end
$var reg 1 W spi_dgier_gie_q $end
$var wire 1 X spi_dgier_gie_out_w $end
$var reg 1 Y spi_ipisr_wr_q $end
$var wire 1 Z spi_ipisr_tx_empty_out_w $end
$var reg 1 [ spi_ipier_wr_q $end
$var reg 1 \ spi_ipier_tx_empty_q $end
$var wire 1 ] spi_ipier_tx_empty_out_w $end
$var reg 1 ^ spi_srr_wr_q $end
$var reg 32 _ spi_srr_reset_q [31:0] $end
$var wire 32 ` spi_srr_reset_out_w [31:0] $end
$var reg 1 a spi_cr_wr_q $end
$var reg 1 b spi_cr_loop_q $end
$var wire 1 c spi_cr_loop_out_w $end
$var reg 1 d spi_cr_spe_q $end
$var wire 1 e spi_cr_spe_out_w $end
$var reg 1 f spi_cr_master_q $end
$var wire 1 g spi_cr_master_out_w $end
$var reg 1 h spi_cr_cpol_q $end
$var wire 1 i spi_cr_cpol_out_w $end
$var reg 1 j spi_cr_cpha_q $end
$var wire 1 k spi_cr_cpha_out_w $end
$var reg 1 l spi_cr_txfifo_rst_q $end
$var wire 1 m spi_cr_txfifo_rst_out_w $end
$var reg 1 n spi_cr_rxfifo_rst_q $end
$var wire 1 o spi_cr_rxfifo_rst_out_w $end
$var reg 1 p spi_cr_manual_ss_q $end
$var wire 1 q spi_cr_manual_ss_out_w $end
$var reg 1 r spi_cr_trans_inhibit_q $end
$var wire 1 s spi_cr_trans_inhibit_out_w $end
$var reg 1 t spi_cr_lsb_first_q $end
$var wire 1 u spi_cr_lsb_first_out_w $end
$var reg 1 v spi_sr_wr_q $end
$var reg 1 w spi_dtr_wr_q $end
$var wire 8 x spi_dtr_data_out_w [7:0] $end
$var reg 1 y spi_drr_wr_q $end
$var reg 1 z spi_ssr_wr_q $end
$var reg 1 { spi_ssr_value_q $end
$var wire 1 | spi_ssr_value_out_w $end
$var wire 1 } spi_ipisr_tx_empty_in_w $end
$var wire 1 ~ spi_sr_rx_empty_in_w $end
$var wire 1 "! spi_sr_rx_full_in_w $end
$var wire 1 "" spi_sr_tx_empty_in_w $end
$var wire 1 "# spi_sr_tx_full_in_w $end
$var wire 8 "$ spi_drr_data_in_w [7:0] $end
$var reg 32 "% data_r [31:0] $end
$var reg 1 "& rvalid_q $end
$var reg 32 "' rd_data_q [31:0] $end
$var reg 1 "( bvalid_q $end
$var wire 1 ") spi_cr_rd_req_w $end
$var wire 1 "* spi_drr_rd_req_w $end
$var wire 1 "+ spi_ipisr_wr_req_w $end
$var wire 1 ", spi_cr_wr_req_w $end
$var wire 1 "- spi_dtr_wr_req_w $end
$var wire 1 ". spi_drr_wr_req_w $end
$var wire 1 "/ sw_reset_w $end
$var wire 1 "0 tx_fifo_flush_w $end
$var wire 1 "1 rx_fifo_flush_w $end
$var wire 1 "2 tx_accept_w $end
$var wire 1 "3 tx_ready_w $end
$var wire 8 "4 tx_data_raw_w [7:0] $end
$var wire 1 "5 tx_pop_w $end
$var wire 8 "6 tx_data_w [7:0] $end
$var wire 1 "7 rx_accept_w $end
$var wire 1 "8 rx_ready_w $end
$var wire 8 "9 rx_data_w [7:0] $end
$var wire 1 ": rx_push_w $end
$var wire 32 "; clk_div_w [31:0] $end
$var reg 1 "< active_q $end
$var reg 6 "= bit_count_q [5:0] $end
$var reg 8 "> shift_reg_q [7:0] $end
$var reg 32 "? clk_div_q [31:0] $end
$var reg 1 "@ done_q $end
$var reg 1 "A spi_clk_q $end
$var reg 1 "B spi_mosi_q $end
$var wire 1 "C enable_w $end
$var wire 1 "D start_w $end
$var wire 1 "E miso_w $end
$var wire 1 "F clk_en_w $end
$var reg 1 "G sample_r $end
$var reg 1 "H drive_r $end
$var reg 1 "I check_tx_level_q $end
$var reg 1 "J intr_q $end

$scope module u_tx_fifo $end
$var wire 1 ; clk_i $end
$var wire 1 < rst_i $end
$var wire 8 x data_in_i [7:0] $end
$var wire 1 "- push_i $end
$var wire 1 "5 pop_i $end
$var wire 1 "0 flush_i $end
$var wire 8 "4 data_out_o [7:0] $end
$var wire 1 "2 accept_o $end
$var wire 1 "3 valid_o $end
$var reg 2 "K rd_ptr_q [1:0] $end
$var reg 2 "L wr_ptr_q [1:0] $end
$var reg 3 "M count_q [2:0] $end
$upscope $end


$scope module u_rx_fifo $end
$var wire 1 ; clk_i $end
$var wire 1 < rst_i $end
$var wire 8 "9 data_in_i [7:0] $end
$var wire 1 ": push_i $end
$var wire 1 "* pop_i $end
$var wire 1 "1 flush_i $end
$var wire 8 "$ data_out_o [7:0] $end
$var wire 1 "7 accept_o $end
$var wire 1 "8 valid_o $end
$var reg 2 "N rd_ptr_q [1:0] $end
$var reg 2 "O wr_ptr_q [1:0] $end
$var reg 3 "P count_q [2:0] $end
$upscope $end

$upscope $end

$upscope $end

$enddefinitions $end

#0
$dumpvars
0!
1"
b00 5
b00000000000000000000000000000000 4
b00000000000000000000000000000000 0
b00 .
b1111 *
b00000000000000000000000000000000 )
b00000000000000000000000000000000 &
0"<
0"(
0"I
1"F
0"@
0"H
0"C
0"J
x"E
0T
0"&
1"7
0"1
0":
0"8
0"G
0"A
0k
0j
0i
0h
0c
0b
0u
0t
0q
0p
0g
0f
0")
0o
0n
0e
0d
0s
0r
0m
0l
0a
0",
0X
0W
0V
0"*
0y
0".
0w
0"-
0]
0\
0[
1}
0Z
0Y
0"+
0"B
1~
0"!
1""
0"#
0v
0^
1{
0z
0"D
0"/
1"2
0"0
0"5
0"3
0U
b000000 "=
b00000000000000000000000000000000 "?
b00000000000000000000000000000010 ";
b000 "M
b00000000000000000000000000000000 "%
b00000000000000000000000000000000 "'
b00 "K
b00000000 "9
b00000000 ">
bxxxxxxxx "$
b00000000 x
b00000000000000000000000000000000 `
b00000000000000000000000000000000 _
bxxxxxxxx "4
bxxxxxxxx "6
b000 "P
b00 "N
b00 "O
b00000000000000000000000000000000 S
b00 "L
0;
1<
1'
1+
1G
1H
0I
0L
0O
0P
1|
1Q
0R
0#
1$
b00000000000000000000000000000000 >
b00000000000000000000000000000000 @
b1111 A
b00000000000000000000000000000000 D
b00 J
b00000000000000000000000000000000 M
b00 N
0=
0?
0B
0C
0E
xF
1K
12
0/
0%
0,
0-
07
18
x:
x6
09
01
03
0(
$end
#5
1!
1;
1#
#10
0!
0;
0#
#15
1!
1;
1#
#20
0!
0;
0#
#25
1!
1;
1#
#30
0!
0;
0#
#35
1!
1;
1#
#40
0!
0;
0#
#45
1!
1;
1#
#50
0!
0;
0#
#55
1!
1;
1#
#60
0!
0;
0#
#65
1!
1;
1#
#70
0!
0;
0#
#75
1!
1;
1#
#80
0!
0;
0#
#85
1!
1;
1#
#90
0!
0;
0#
#95
1!
1;
1#
0"
0<
0$
#100
0!
0;
0#
#105
1!
1;
1#
b00000000000000000000000000000010 "?
0"F
1%
1=
1U
b00000000000000000000000001000000 &
b00000000000000000000000001000000 >
1(
1?
b00000000000000000000000000001010 )
b00000000000000000000000000001010 @
bxxxx *
bxxxx A
#110
0!
0;
0#
#115
1!
1;
1#
1^
b00000000000000000000000000001010 _
b00000000000000000000000000001010 `
1"/
1"1
1"0
1"(
1I
1-
0G
0H
0'
0+
0U
b00000000000000000000000000000001 "?
b00000000000000000000000000001010 S
b00001010 x
0%
0=
0(
0?
1,
1B
#120
0!
0;
0#
#125
1!
1;
1#
0^
b00000000000000000000000000000000 _
b00000000000000000000000000000000 `
0"/
0"1
0"0
0"(
0I
0-
1G
1H
1'
1+
b00000000000000000000000000000010 "?
#130
0!
0;
0#
#135
1!
1;
1#
b00000000000000000000000000000001 "?
0,
0B
#140
0!
0;
0#
#145
1!
1;
1#
b00000000000000000000000000000000 "?
1"F
#150
0!
0;
0#
#155
1!
1;
1#
b00000000000000000000000000000010 "?
0"F
#160
0!
0;
0#
#165
1!
1;
1#
b00000000000000000000000000000001 "?
#170
0!
0;
0#
#175
1!
1;
1#
b00000000000000000000000000000000 "?
1"F
#180
0!
0;
0#
#185
1!
1;
1#
b00000000000000000000000000000010 "?
0"F
#190
0!
0;
0#
#195
1!
1;
1#
b00000000000000000000000000000001 "?
#200
0!
0;
0#
#205
1!
1;
1#
b00000000000000000000000000000000 "?
1"F
#210
0!
0;
0#
#215
1!
1;
1#
b00000000000000000000000000000010 "?
0"F
#220
0!
0;
0#
#225
1!
1;
1#
b00000000000000000000000000000001 "?
#230
0!
0;
0#
#235
1!
1;
1#
b00000000000000000000000000000000 "?
1"F
#240
0!
0;
0#
#245
1!
1;
1#
b00000000000000000000000000000010 "?
0"F
#250
0!
0;
0#
#255
1!
1;
1#
b00000000000000000000000000000001 "?
#260
0!
0;
0#
#265
1!
1;
1#
b00000000000000000000000000000000 "?
1"F
#270
0!
0;
0#
#275
1!
1;
1#
b00000000000000000000000000000010 "?
0"F
#280
0!
0;
0#
#285
1!
1;
1#
b00000000000000000000000000000001 "?
#290
0!
0;
0#
#295
1!
1;
1#
b00000000000000000000000000000000 "?
1"F
#300
0!
0;
0#
#305
1!
1;
1#
b00000000000000000000000000000010 "?
0"F
#310
0!
0;
0#
#315
1!
1;
1#
b00000000000000000000000000000001 "?
#320
0!
0;
0#
#325
1!
1;
1#
b00000000000000000000000000000000 "?
1"F
#330
0!
0;
0#
#335
1!
1;
1#
b00000000000000000000000000000010 "?
0"F
#340
0!
0;
0#
#345
1!
1;
1#
b00000000000000000000000000000001 "?
#350
0!
0;
0#
#355
1!
1;
1#
b00000000000000000000000000000000 "?
1"F
#360
0!
0;
0#
#365
1!
1;
1#
b00000000000000000000000000000010 "?
0"F
#370
0!
0;
0#
#375
1!
1;
1#
b00000000000000000000000000000001 "?
#380
0!
0;
0#
#385
1!
1;
1#
b00000000000000000000000000000000 "?
1"F
#390
0!
0;
0#
#395
1!
1;
1#
b00000000000000000000000000000010 "?
0"F
#400
0!
0;
0#
#405
1!
1;
1#
b00000000000000000000000000000001 "?
#410
0!
0;
0#
#415
1!
1;
1#
b00000000000000000000000000000000 "?
1"F
#420
0!
0;
0#
#425
1!
1;
1#
b00000000000000000000000000000010 "?
0"F
#430
0!
0;
0#
#435
1!
1;
1#
b00000000000000000000000000000001 "?
#440
0!
0;
0#
#445
1!
1;
1#
b00000000000000000000000000000000 "?
1"F
#450
0!
0;
0#
#455
1!
1;
1#
b00000000000000000000000000000010 "?
0"F
#460
0!
0;
0#
#465
1!
1;
1#
b00000000000000000000000000000001 "?
#470
0!
0;
0#
#475
1!
1;
1#
b00000000000000000000000000000000 "?
1"F
#480
0!
0;
0#
#485
1!
1;
1#
b00000000000000000000000000000010 "?
0"F
#490
0!
0;
0#
#495
1!
1;
1#
b00000000000000000000000000000001 "?
#500
0!
0;
0#
#505
1!
1;
1#
b00000000000000000000000000000000 "?
1"F
#510
0!
0;
0#
#515
1!
1;
1#
b00000000000000000000000000000010 "?
0"F
#520
0!
0;
0#
#525
1!
1;
1#
b00000000000000000000000000000001 "?
#530
0!
0;
0#
#535
1!
1;
1#
b00000000000000000000000000000000 "?
1"F
#540
0!
0;
0#
#545
1!
1;
1#
b00000000000000000000000000000010 "?
0"F
#550
0!
0;
0#
#555
1!
1;
1#
b00000000000000000000000000000001 "?
#560
0!
0;
0#
#565
1!
1;
1#
b00000000000000000000000000000000 "?
1"F
#570
0!
0;
0#
#575
1!
1;
1#
b00000000000000000000000000000010 "?
0"F
#580
0!
0;
0#
#585
1!
1;
1#
b00000000000000000000000000000001 "?
#590
0!
0;
0#
#595
1!
1;
1#
b00000000000000000000000000000000 "?
1"F
#600
0!
0;
0#
#605
1!
1;
1#
b00000000000000000000000000000010 "?
0"F
#610
0!
0;
0#
#615
1!
1;
1#
b00000000000000000000000000000001 "?
#620
0!
0;
0#
#625
1!
1;
1#
b00000000000000000000000000000000 "?
1"F
#630
0!
0;
0#
#635
1!
1;
1#
b00000000000000000000000000000010 "?
0"F
#640
0!
0;
0#
#645
1!
1;
1#
b00000000000000000000000000000001 "?
#650
0!
0;
0#
#655
1!
1;
1#
b00000000000000000000000000000000 "?
1"F
#660
0!
0;
0#
#665
1!
1;
1#
b00000000000000000000000000000010 "?
0"F
#670
0!
0;
0#
#675
1!
1;
1#
b00000000000000000000000000000001 "?
#680
0!
0;
0#
#685
1!
1;
1#
b00000000000000000000000000000000 "?
1"F
#690
0!
0;
0#
#695
1!
1;
1#
b00000000000000000000000000000010 "?
0"F
#700
0!
0;
0#
#705
1!
1;
1#
b00000000000000000000000000000001 "?
#710
0!
0;
0#
#715
1!
1;
1#
b00000000000000000000000000000000 "?
1"F
#720
0!
0;
0#
#725
1!
1;
1#
b00000000000000000000000000000010 "?
0"F
#730
0!
0;
0#
#735
1!
1;
1#
b00000000000000000000000000000001 "?
#740
0!
0;
0#
#745
1!
1;
1#
b00000000000000000000000000000000 "?
1"F
#750
0!
0;
0#
#755
1!
1;
1#
b00000000000000000000000000000010 "?
0"F
#760
0!
0;
0#
#765
1!
1;
1#
b00000000000000000000000000000001 "?
#770
0!
0;
0#
#775
1!
1;
1#
b00000000000000000000000000000000 "?
1"F
#780
0!
0;
0#
#785
1!
1;
1#
b00000000000000000000000000000010 "?
0"F
#790
0!
0;
0#
#795
1!
1;
1#
b00000000000000000000000000000001 "?
#800
0!
0;
0#
#805
1!
1;
1#
b00000000000000000000000000000000 "?
1"F
#810
0!
0;
0#
#815
1!
1;
1#
b00000000000000000000000000000010 "?
0"F
#820
0!
0;
0#
#825
1!
1;
1#
b00000000000000000000000000000001 "?
#830
0!
0;
0#
#835
1!
1;
1#
b00000000000000000000000000000000 "?
1"F
#840
0!
0;
0#
#845
1!
1;
1#
b00000000000000000000000000000010 "?
0"F
#850
0!
0;
0#
#855
1!
1;
1#
b00000000000000000000000000000001 "?
#860
0!
0;
0#
#865
1!
1;
1#
b00000000000000000000000000000000 "?
1"F
#870
0!
0;
0#
#875
1!
1;
1#
b00000000000000000000000000000010 "?
0"F
#880
0!
0;
0#
#885
1!
1;
1#
b00000000000000000000000000000001 "?
#890
0!
0;
0#
#895
1!
1;
1#
b00000000000000000000000000000000 "?
1"F
#900
0!
0;
0#
#905
1!
1;
1#
b00000000000000000000000000000010 "?
0"F
#910
0!
0;
0#
#915
1!
1;
1#
b00000000000000000000000000000001 "?
#920
0!
0;
0#
#925
1!
1;
1#
b00000000000000000000000000000000 "?
1"F
#930
0!
0;
0#
#935
1!
1;
1#
b00000000000000000000000000000010 "?
0"F
#940
0!
0;
0#
#945
1!
1;
1#
b00000000000000000000000000000001 "?
#950
0!
0;
0#
#955
1!
1;
1#
b00000000000000000000000000000000 "?
1"F
#960
0!
0;
0#
#965
1!
1;
1#
b00000000000000000000000000000010 "?
0"F
#970
0!
0;
0#
#975
1!
1;
1#
b00000000000000000000000000000001 "?
#980
0!
0;
0#
#985
1!
1;
1#
b00000000000000000000000000000000 "?
1"F
#990
0!
0;
0#
#995
1!
1;
1#
b00000000000000000000000000000010 "?
0"F
#1000
0!
0;
0#
#1005
1!
1;
1#
b00000000000000000000000000000001 "?
#1010
0!
0;
0#
#1015
1!
1;
1#
b00000000000000000000000000000000 "?
1"F
#1020
0!
0;
0#
#1025
1!
1;
1#
b00000000000000000000000000000010 "?
0"F
#1030
0!
0;
0#
#1035
1!
1;
1#
b00000000000000000000000000000001 "?
#1040
0!
0;
0#
#1045
1!
1;
1#
b00000000000000000000000000000000 "?
1"F
#1050
0!
0;
0#
#1055
1!
1;
1#
b00000000000000000000000000000010 "?
0"F
#1060
0!
0;
0#
#1065
1!
1;
1#
b00000000000000000000000000000001 "?
#1070
0!
0;
0#
#1075
1!
1;
1#
b00000000000000000000000000000000 "?
1"F
#1080
0!
0;
0#
#1085
1!
1;
1#
b00000000000000000000000000000010 "?
0"F
#1090
0!
0;
0#
#1095
1!
1;
1#
b00000000000000000000000000000001 "?
#1100
0!
0;
0#
#1105
1!
1;
1#
b00000000000000000000000000000000 "?
1"F
#1110
0!
0;
0#
#1115
1!
1;
1#
b00000000000000000000000000000010 "?
0"F
#1120
0!
0;
0#
#1125
1!
1;
1#
b00000000000000000000000000000001 "?
#1130
0!
0;
0#
#1135
1!
1;
1#
b00000000000000000000000000000000 "?
1"F
