sim/wave.vcd
$date
	Mon Mar 16 19:06:00 2026
$end

$version
	Synopsys VCS version L-2016.06_Full64
$end

$timescale
	1ps
$end

$comment Csum: 1 f7e8fe7585dfc912 $end


$scope module testbench_top $end
$var reg 1 ! clk $end
$var reg 1 " rst $end

$scope begin unnamed$$_vcs_3 $end
$upscope $end


$scope begin unnamed$$_vcs_0 $end
$upscope $end


$scope begin unnamed$$_vcs_1 $end
$upscope $end


$scope begin unnamed$$_vcs_2 $end
$upscope $end


$scope begin unnamed$$_vcs_4 $end
$upscope $end


$scope begin unnamed$$_vcs_5 $end
$upscope $end


$scope module intf $end
$var reg 1 # clk_i $end
$var reg 1 $ rst_i $end
$var reg 1 % awvalid_i $end
$var reg 32 & awaddr_i [31:0] $end
$var reg 1 ' awready_o $end
$var reg 1 ( wvalid_i $end
$var reg 32 ) wdata_i [31:0] $end
$var reg 4 * wstrb_i [3:0] $end
$var reg 1 + wready_o $end
$var reg 1 , bready_i $end
$var reg 1 - bvalid_o $end
$var reg 2 . bresp_o [1:0] $end
$var reg 1 / arvalid_i $end
$var reg 32 0 araddr_i [31:0] $end
$var reg 1 1 rready_i $end
$var reg 1 2 arready_o $end
$var reg 1 3 rvalid_o $end
$var reg 32 4 rdata_o [31:0] $end
$var reg 2 5 rresp_o [1:0] $end
$var reg 1 6 miso_i $end
$var reg 1 7 clk_o $end
$var reg 1 8 cs_o $end
$var reg 1 9 intr_o $end
$var reg 1 : mosi_o $end
$upscope $end


$scope module dut $end
$var wire 1 ; clk_i $end
$var wire 1 < rst_i $end
$var wire 1 = cfg_awvalid_i $end
$var wire 32 > cfg_awaddr_i [31:0] $end
$var wire 1 ? cfg_wvalid_i $end
$var wire 32 @ cfg_wdata_i [31:0] $end
$var wire 4 A cfg_wstrb_i [3:0] $end
$var wire 1 B cfg_bready_i $end
$var wire 1 C cfg_arvalid_i $end
$var wire 32 D cfg_araddr_i [31:0] $end
$var wire 1 E cfg_rready_i $end
$var wire 1 F spi_miso_i $end
$var wire 1 G cfg_awready_o $end
$var wire 1 H cfg_wready_o $end
$var wire 1 I cfg_bvalid_o $end
$var wire 2 J cfg_bresp_o [1:0] $end
$var wire 1 K cfg_arready_o $end
$var wire 1 L cfg_rvalid_o $end
$var wire 32 M cfg_rdata_o [31:0] $end
$var wire 2 N cfg_rresp_o [1:0] $end
$var wire 1 O spi_clk_o $end
$var wire 1 P spi_mosi_o $end
$var wire 1 Q spi_cs_o $end
$var wire 1 R intr_o $end
$var reg 32 S wr_data_q [31:0] $end
$var wire 1 T read_en_w $end
$var wire 1 U write_en_w $end
$var reg 1 V spi_dgier_wr_q $end
$var reg 1 W spi_dgier_gie_q $end
$var wire 1 W spi_dgier_gie_out_w $end
$var reg 1 X spi_ipisr_wr_q $end
$var wire 1 Y spi_ipisr_tx_empty_out_w $end
$var reg 1 Z spi_ipier_wr_q $end
$var reg 1 [ spi_ipier_tx_empty_q $end
$var wire 1 [ spi_ipier_tx_empty_out_w $end
$var reg 1 \ spi_srr_wr_q $end
$var reg 32 ] spi_srr_reset_q [31:0] $end
$var wire 32 ] spi_srr_reset_out_w [31:0] $end
$var reg 1 ^ spi_cr_wr_q $end
$var reg 1 _ spi_cr_loop_q $end
$var wire 1 _ spi_cr_loop_out_w $end
$var reg 1 ` spi_cr_spe_q $end
$var wire 1 ` spi_cr_spe_out_w $end
$var reg 1 a spi_cr_master_q $end
$var wire 1 a spi_cr_master_out_w $end
$var reg 1 b spi_cr_cpol_q $end
$var wire 1 b spi_cr_cpol_out_w $end
$var reg 1 c spi_cr_cpha_q $end
$var wire 1 c spi_cr_cpha_out_w $end
$var reg 1 d spi_cr_txfifo_rst_q $end
$var wire 1 d spi_cr_txfifo_rst_out_w $end
$var reg 1 e spi_cr_rxfifo_rst_q $end
$var wire 1 e spi_cr_rxfifo_rst_out_w $end
$var reg 1 f spi_cr_manual_ss_q $end
$var wire 1 f spi_cr_manual_ss_out_w $end
$var reg 1 g spi_cr_trans_inhibit_q $end
$var wire 1 g spi_cr_trans_inhibit_out_w $end
$var reg 1 h spi_cr_lsb_first_q $end
$var wire 1 h spi_cr_lsb_first_out_w $end
$var reg 1 i spi_sr_wr_q $end
$var reg 1 j spi_dtr_wr_q $end
$var wire 8 k spi_dtr_data_out_w [7:0] $end
$var reg 1 l spi_drr_wr_q $end
$var reg 1 m spi_ssr_wr_q $end
$var reg 1 n spi_ssr_value_q $end
$var wire 1 n spi_ssr_value_out_w $end
$var wire 1 o spi_ipisr_tx_empty_in_w $end
$var wire 1 p spi_sr_rx_empty_in_w $end
$var wire 1 q spi_sr_rx_full_in_w $end
$var wire 1 o spi_sr_tx_empty_in_w $end
$var wire 1 r spi_sr_tx_full_in_w $end
$var wire 8 s spi_drr_data_in_w [7:0] $end
$var reg 32 t data_r [31:0] $end
$var reg 1 u rvalid_q $end
$var reg 32 v rd_data_q [31:0] $end
$var reg 1 w bvalid_q $end
$var wire 1 x spi_cr_rd_req_w $end
$var wire 1 y spi_drr_rd_req_w $end
$var wire 1 X spi_ipisr_wr_req_w $end
$var wire 1 ^ spi_cr_wr_req_w $end
$var wire 1 j spi_dtr_wr_req_w $end
$var wire 1 l spi_drr_wr_req_w $end
$var wire 1 z sw_reset_w $end
$var wire 1 { tx_fifo_flush_w $end
$var wire 1 | rx_fifo_flush_w $end
$var wire 1 } tx_accept_w $end
$var wire 1 ~ tx_ready_w $end
$var wire 8 "! tx_data_raw_w [7:0] $end
$var wire 1 "" tx_pop_w $end
$var wire 8 "# tx_data_w [7:0] $end
$var wire 1 "$ rx_accept_w $end
$var wire 1 "% rx_ready_w $end
$var wire 8 "& rx_data_w [7:0] $end
$var wire 1 "" rx_push_w $end
$var wire 32 "' clk_div_w [31:0] $end
$var reg 1 "( active_q $end
$var reg 6 ") bit_count_q [5:0] $end
$var reg 8 "* shift_reg_q [7:0] $end
$var reg 32 "+ clk_div_q [31:0] $end
$var reg 1 "" done_q $end
$var reg 1 ", spi_clk_q $end
$var reg 1 "- spi_mosi_q $end
$var wire 1 ". enable_w $end
$var wire 1 "/ start_w $end
$var wire 1 "0 miso_w $end
$var wire 1 "1 clk_en_w $end
$var reg 1 "2 sample_r $end
$var reg 1 "3 drive_r $end
$var reg 1 "4 check_tx_level_q $end
$var reg 1 "5 intr_q $end

$scope module u_tx_fifo $end
$var wire 1 ; clk_i $end
$var wire 1 < rst_i $end
$var wire 8 "6 data_in_i [7:0] $end
$var wire 1 "7 push_i $end
$var wire 1 "8 pop_i $end
$var wire 1 { flush_i $end
$var wire 8 "! data_out_o [7:0] $end
$var wire 1 } accept_o $end
$var wire 1 ~ valid_o $end
$var reg 2 "9 rd_ptr_q [1:0] $end
$var reg 2 ": wr_ptr_q [1:0] $end
$var reg 3 "; count_q [2:0] $end
$upscope $end


$scope module u_rx_fifo $end
$var wire 1 ; clk_i $end
$var wire 1 < rst_i $end
$var wire 8 "& data_in_i [7:0] $end
$var wire 1 "8 push_i $end
$var wire 1 y pop_i $end
$var wire 1 | flush_i $end
$var wire 8 s data_out_o [7:0] $end
$var wire 1 "$ accept_o $end
$var wire 1 "% valid_o $end
$var reg 2 "< rd_ptr_q [1:0] $end
$var reg 2 "= wr_ptr_q [1:0] $end
$var reg 3 "> count_q [2:0] $end
$upscope $end

$upscope $end

$upscope $end

$enddefinitions $end

#0
$dumpvars
0!
1"
b00 5
b00000000000000000000000000000000 4
b00000000000000000000000000000000 0
b00 .
b0000 *
b00000000000000000000000000000000 )
b00000000000000000000000000000000 &
0"(
0w
0"4
1"1
0""
0"3
0"5
x"0
0T
0u
0"2
0",
0c
0b
0_
0h
0f
0a
0e
0`
0g
0d
0^
0W
0V
0l
0j
0[
0Z
0X
0"-
0i
0\
1n
0m
0"/
xx
xY
xz
x".
0U
b000000 ")
b00000000000000000000000000000000 "+
b00000000000000000000000000000000 t
b00000000000000000000000000000000 v
b00000000 "*
b00000000000000000000000000000000 ]
bxxxxxxxx k
bxxxxxxxx "#
b00000000000000000000000000000000 S
b000 ";
b00 "9
b00 ":
b000 ">
b00 "<
b00 "=
b00000000000000000000000000000010 "'
1'
1+
1G
1H
0#
1$
0;
1<
b00000000000000000000000000000000 >
b00000000000000000000000000000000 @
b0000 A
b00000000000000000000000000000000 D
b00 J
b00000000000000000000000000000000 M
b00 N
0=
0?
0B
0C
0E
xF
0I
0L
0O
0P
1Q
0R
12
0/
0%
0,
0-
07
18
09
x6
0:
01
03
0(
bxxxxxxxx "!
0{
b00000000 "6
0"7
1}
0"8
0~
0|
b00000000 "&
1"$
0y
bxxxxxxxx s
0"%
1K
0r
1o
0q
1p
$end
0x
0Y
b00000000 k
0z
0".
#5000
1!
1#
1;
#10000
0!
0#
0;
#15000
1!
1#
1;
#20000
0!
0#
0;
#25000
1!
1#
1;
#30000
0!
0#
0;
#35000
1!
1#
1;
#40000
0!
0#
0;
#45000
1!
1#
1;
#50000
0!
0#
0;
#55000
1!
1#
1;
#60000
0!
0#
0;
#65000
1!
1#
1;
#70000
0!
0#
0;
#75000
1!
1#
1;
#80000
0!
0#
0;
#85000
1!
1#
1;
#90000
0!
0#
0;
#95000
1!
1#
1;
0"
0$
0<
#100000
0!
0#
0;
#105000
1!
1#
1;
1%
1=
1U
b00000000000000000000000001000000 &
b00000000000000000000000001000000 >
1(
1?
b00000000000000000000000000001010 )
b00000000000000000000000000001010 @
b0001 *
b0001 A
b00000000000000000000000000000010 "+
0"1
#110000
0!
0#
0;
#115000
1!
1#
1;
0%
0=
0U
0(
0?
1,
1B
b00000000000000000000000000001010 S
b00001010 k
b00001010 "6
1\
b00000000000000000000000000001010 ]
1z
1|
1{
1w
1I
1-
0G
0H
0'
0+
b00000000000000000000000000000001 "+
#120000
0!
0#
0;
#125000
1!
1#
1;
0,
0B
0\
b00000000000000000000000000000000 ]
0z
0|
0{
0w
0I
0-
1G
1H
1'
1+
b00000000000000000000000000000010 "+
#130000
0!
0#
0;
#135000
1!
1#
1;
1%
1=
1U
b00000000000000000000000000011100 &
b00000000000000000000000000011100 >
1(
1?
b10000000000000000000000000000000 )
b10000000000000000000000000000000 @
b00000000000000000000000000000001 "+
#140000
0!
0#
0;
#145000
1!
1#
1;
0%
0=
0U
0(
0?
1,
1B
b10000000000000000000000000000000 S
b00000000 k
b00000000 "6
1V
1W
1w
1I
1-
0G
0H
0'
0+
b00000000000000000000000000000000 "+
1"1
#150000
0!
0#
0;
#155000
1!
1#
1;
0,
0B
0V
0w
0I
0-
1G
1H
1'
1+
b00000000000000000000000000000010 "+
0"1
#160000
0!
0#
0;
#165000
1!
1#
1;
1%
1=
1U
b00000000000000000000000000101000 &
b00000000000000000000000000101000 >
1(
1?
b00000000000000000000000000000100 )
b00000000000000000000000000000100 @
b00000000000000000000000000000001 "+
#170000
0!
0#
0;
#175000
1!
1#
1;
0%
0=
0U
0(
0?
1,
1B
b00000000000000000000000000000100 S
1Y
b00000100 k
b00000100 "6
1Z
1[
1w
1I
1-
0G
0H
0'
0+
b00000000000000000000000000000000 "+
1"1
#180000
0!
0#
0;
#185000
1!
1#
1;
0,
0B
0Z
0w
0I
0-
1G
1H
1'
1+
b00000000000000000000000000000010 "+
0"1
#190000
0!
0#
0;
#195000
1!
1#
1;
1%
1=
1U
b00000000000000000000000001100000 &
b00000000000000000000000001100000 >
1(
1?
b00000000000000000000000110000110 )
b00000000000000000000000110000110 @
b00000000000000000000000000000001 "+
#200000
0!
0#
0;
#205000
1!
1#
1;
0%
0=
0U
0(
0?
1,
1B
b00000000000000000000000110000110 S
b10000110 k
b10000110 "6
1^
1`
1a
1".
1f
1g
0".
1w
1I
1-
0G
0H
0'
0+
b00000000000000000000000000000000 "+
1"1
#210000
0!
0#
0;
#215000
1!
1#
1;
0,
0B
0^
0w
0I
0-
1G
1H
1'
1+
b00000000000000000000000000000010 "+
0"1
#220000
0!
0#
0;
#225000
1!
1#
1;
1%
1=
1U
b00000000000000000000000001110000 &
b00000000000000000000000001110000 >
1(
1?
b00000000000000000000000000000000 )
b00000000000000000000000000000000 @
b00000000000000000000000000000001 "+
#230000
0!
0#
0;
#235000
1!
1#
1;
0%
0=
0U
0(
0?
1,
1B
b00000000000000000000000000000000 S
0Y
b00000000 k
b00000000 "6
1m
0n
0Q
08
1w
1I
1-
0G
0H
0'
0+
b00000000000000000000000000000000 "+
1"1
06
0F
0"0
#240000
0!
0#
0;
#245000
1!
1#
1;
0,
0B
0m
0w
0I
0-
1G
1H
1'
1+
b00000000000000000000000000000010 "+
0"1
#250000
0!
0#
0;
#255000
1!
1#
1;
1%
1=
1U
b00000000000000000000000001101000 &
b00000000000000000000000001101000 >
1(
1?
b00000000000000000000000010101010 )
b00000000000000000000000010101010 @
b00000000000000000000000000000001 "+
#260000
0!
0#
0;
#265000
1!
1#
1;
0%
0=
0U
0(
0?
1,
1B
b00000000000000000000000010101010 S
b10101010 k
b10101010 "6
1j
1"7
1w
1I
1-
0G
0H
0'
0+
b00000000000000000000000000000000 "+
1"1
#270000
0!
0#
0;
#275000
1!
1#
1;
0,
0B
0j
0"7
0w
0I
0-
1G
1H
1'
1+
b00000000000000000000000000000010 "+
0"1
b10101010 "!
b01 ":
b001 ";
1~
0o
b10101010 "#
#280000
0!
0#
0;
#285000
1!
1#
1;
1%
1=
1U
1(
1?
b00000000000000000000000011111111 )
b00000000000000000000000011111111 @
b00000000000000000000000000000001 "+
#290000
0!
0#
0;
#295000
1!
1#
1;
0%
0=
0U
0(
0?
1,
1B
b00000000000000000000000011111111 S
1Y
b11111111 k
b11111111 "6
1j
1"7
1w
1I
1-
0G
0H
0'
0+
b00000000000000000000000000000000 "+
1"1
#300000
0!
0#
0;
#305000
1!
1#
1;
0,
0B
0j
0"7
0w
0I
0-
1G
1H
1'
1+
b00000000000000000000000000000010 "+
0"1
b10 ":
b010 ";
#310000
0!
0#
0;
#315000
1!
1#
1;
1%
1=
1U
b00000000000000000000000001100000 &
b00000000000000000000000001100000 >
1(
1?
b00000000000000000000000010000110 )
b00000000000000000000000010000110 @
b00000000000000000000000000000001 "+
#320000
0!
0#
0;
#325000
1!
1#
1;
0%
0=
0U
0(
0?
1,
1B
b00000000000000000000000010000110 S
b10000110 k
b10000110 "6
1^
0g
1".
1w
1I
1-
0G
0H
0'
0+
b00000000000000000000000000000000 "+
1"1
1"/
1"3
#330000
0!
0#
0;
#335000
1!
1#
1;
0,
0B
0^
0w
0I
0-
1G
1H
1'
1+
b00000000000000000000000000000010 "+
0"1
1"-
1P
1:
b01010100 "*
1"(
b01010100 "&
0"/
0"3
#340000
0!
0#
0;
#345000
1!
1#
1;
1/
1C
0G
0H
0'
0+
1T
b00000000000000000000000001100100 0
b00000000000000000000000001100100 D
b00000000000000000000000000000001 "+
b00000000000000000000000000000001 t
#350000
0!
0#
0;
#355000
1!
1#
1;
0/
0C
1G
1H
1'
1+
0T
b00000000000000000000000000000000 0
b00000000000000000000000000000000 D
11
1E
1u
1L
13
0K
02
b00000000000000000000000000000001 v
b00000000000000000000000000000001 M
b00000000000000000000000000000001 4
b00000000000000000000000000000000 "+
1"1
b00000000000000000000000000000000 t
1"2
#360000
0!
0#
0;
#365000
1!
1#
1;
01
0E
0u
0L
03
1K
12
b00000000000000000000000000000000 v
b00000000000000000000000000000000 M
b00000000000000000000000000000000 4
b00000000000000000000000000000010 "+
0"1
1",
1O
17
b000001 ")
0"2
#370000
0!
0#
0;
#375000
1!
1#
1;
1/
1C
0G
0H
0'
0+
1T
b00000000000000000000000001100100 0
b00000000000000000000000001100100 D
b00000000000000000000000000000001 "+
b00000000000000000000000000000001 t
#380000
0!
0#
0;
#385000
1!
1#
1;
0/
0C
1G
1H
1'
1+
0T
b00000000000000000000000000000000 0
b00000000000000000000000000000000 D
11
1E
1u
1L
13
0K
02
b00000000000000000000000000000001 v
b00000000000000000000000000000001 M
b00000000000000000000000000000001 4
b00000000000000000000000000000000 "+
1"1
b00000000000000000000000000000000 t
1"3
#390000
0!
0#
0;
#395000
1!
1#
1;
01
0E
0u
0L
03
1K
12
b00000000000000000000000000000000 v
b00000000000000000000000000000000 M
b00000000000000000000000000000000 4
b00000000000000000000000000000010 "+
0"1
0",
0O
07
0"-
0P
0:
b10101000 "*
b000010 ")
0"3
b10101000 "&
#400000
0!
0#
0;
#405000
1!
1#
1;
1/
1C
0G
0H
0'
0+
1T
b00000000000000000000000001100100 0
b00000000000000000000000001100100 D
b00000000000000000000000000000001 "+
b00000000000000000000000000000001 t
#410000
0!
0#
0;
#415000
1!
1#
1;
0/
0C
1G
1H
1'
1+
0T
b00000000000000000000000000000000 0
b00000000000000000000000000000000 D
11
1E
1u
1L
13
0K
02
b00000000000000000000000000000001 v
b00000000000000000000000000000001 M
b00000000000000000000000000000001 4
b00000000000000000000000000000000 "+
1"1
b00000000000000000000000000000000 t
1"2
#420000
0!
0#
0;
#425000
1!
1#
1;
01
0E
0u
0L
03
1K
12
b00000000000000000000000000000000 v
b00000000000000000000000000000000 M
b00000000000000000000000000000000 4
b00000000000000000000000000000010 "+
0"1
1",
1O
17
b000011 ")
0"2
#430000
0!
0#
0;
#435000
1!
1#
1;
1/
1C
0G
0H
0'
0+
1T
b00000000000000000000000001100100 0
b00000000000000000000000001100100 D
b00000000000000000000000000000001 "+
b00000000000000000000000000000001 t
#440000
0!
0#
0;
#445000
1!
1#
1;
0/
0C
1G
1H
1'
1+
0T
b00000000000000000000000000000000 0
b00000000000000000000000000000000 D
11
1E
1u
1L
13
0K
02
b00000000000000000000000000000001 v
b00000000000000000000000000000001 M
b00000000000000000000000000000001 4
b00000000000000000000000000000000 "+
1"1
b00000000000000000000000000000000 t
1"3
#450000
0!
0#
0;
#455000
1!
1#
1;
01
0E
0u
0L
03
1K
12
b00000000000000000000000000000000 v
b00000000000000000000000000000000 M
b00000000000000000000000000000000 4
b00000000000000000000000000000010 "+
0"1
0",
0O
07
1"-
1P
1:
b01010000 "*
b000100 ")
0"3
b01010000 "&
#460000
0!
0#
0;
#465000
1!
1#
1;
1/
1C
0G
0H
0'
0+
1T
b00000000000000000000000001100100 0
b00000000000000000000000001100100 D
b00000000000000000000000000000001 "+
b00000000000000000000000000000001 t
#470000
0!
0#
0;
#475000
1!
1#
1;
0/
0C
1G
1H
1'
1+
0T
b00000000000000000000000000000000 0
b00000000000000000000000000000000 D
11
1E
1u
1L
13
0K
02
b00000000000000000000000000000001 v
b00000000000000000000000000000001 M
b00000000000000000000000000000001 4
b00000000000000000000000000000000 "+
1"1
b00000000000000000000000000000000 t
1"2
#480000
0!
0#
0;
#485000
1!
1#
1;
01
0E
0u
0L
03
1K
12
b00000000000000000000000000000000 v
b00000000000000000000000000000000 M
b00000000000000000000000000000000 4
b00000000000000000000000000000010 "+
0"1
1",
1O
17
b000101 ")
0"2
16
1F
1"0
#490000
0!
0#
0;
#495000
1!
1#
1;
1/
1C
0G
0H
0'
0+
1T
b00000000000000000000000001100100 0
b00000000000000000000000001100100 D
b00000000000000000000000000000001 "+
b00000000000000000000000000000001 t
#500000
0!
0#
0;
#505000
1!
1#
1;
0/
0C
1G
1H
1'
1+
0T
b00000000000000000000000000000000 0
b00000000000000000000000000000000 D
11
1E
1u
1L
13
0K
02
b00000000000000000000000000000001 v
b00000000000000000000000000000001 M
b00000000000000000000000000000001 4
b00000000000000000000000000000000 "+
1"1
b00000000000000000000000000000000 t
1"3
#510000
0!
0#
0;
#515000
1!
1#
1;
01
0E
0u
0L
03
1K
12
b00000000000000000000000000000000 v
b00000000000000000000000000000000 M
b00000000000000000000000000000000 4
b00000000000000000000000000000010 "+
0"1
0",
0O
07
0"-
0P
0:
b10100000 "*
b000110 ")
0"3
b10100000 "&
#520000
0!
0#
0;
#525000
1!
1#
1;
1/
1C
0G
0H
0'
0+
1T
b00000000000000000000000001100100 0
b00000000000000000000000001100100 D
b00000000000000000000000000000001 "+
b00000000000000000000000000000001 t
#530000
0!
0#
0;
#535000
1!
1#
1;
0/
0C
1G
1H
1'
1+
0T
b00000000000000000000000000000000 0
b00000000000000000000000000000000 D
11
1E
1u
1L
13
0K
02
b00000000000000000000000000000001 v
b00000000000000000000000000000001 M
b00000000000000000000000000000001 4
b00000000000000000000000000000000 "+
1"1
b00000000000000000000000000000000 t
1"2
#540000
0!
0#
0;
#545000
1!
1#
1;
01
0E
0u
0L
03
1K
12
b00000000000000000000000000000000 v
b00000000000000000000000000000000 M
b00000000000000000000000000000000 4
b00000000000000000000000000000010 "+
0"1
1",
1O
17
b10100001 "*
b000111 ")
0"2
b10100001 "&
#550000
0!
0#
0;
#555000
1!
1#
1;
1/
1C
0G
0H
0'
0+
1T
b00000000000000000000000001100100 0
b00000000000000000000000001100100 D
b00000000000000000000000000000001 "+
b00000000000000000000000000000001 t
#560000
0!
0#
0;
#565000
1!
1#
1;
0/
0C
1G
1H
1'
1+
0T
b00000000000000000000000000000000 0
b00000000000000000000000000000000 D
11
1E
1u
1L
13
0K
02
b00000000000000000000000000000001 v
b00000000000000000000000000000001 M
b00000000000000000000000000000001 4
b00000000000000000000000000000000 "+
1"1
b00000000000000000000000000000000 t
1"3
#570000
0!
0#
0;
#575000
1!
1#
1;
01
0E
0u
0L
03
1K
12
b00000000000000000000000000000000 v
b00000000000000000000000000000000 M
b00000000000000000000000000000000 4
b00000000000000000000000000000010 "+
0"1
0",
0O
07
1"-
1P
1:
b01000010 "*
b001000 ")
0"3
b01000010 "&
#580000
0!
0#
0;
#585000
1!
1#
1;
1/
1C
0G
0H
0'
0+
1T
b00000000000000000000000001100100 0
b00000000000000000000000001100100 D
b00000000000000000000000000000001 "+
b00000000000000000000000000000001 t
#590000
0!
0#
0;
#595000
1!
1#
1;
0/
0C
1G
1H
1'
1+
0T
b00000000000000000000000000000000 0
b00000000000000000000000000000000 D
11
1E
1u
1L
13
0K
02
b00000000000000000000000000000001 v
b00000000000000000000000000000001 M
b00000000000000000000000000000001 4
b00000000000000000000000000000000 "+
1"1
b00000000000000000000000000000000 t
1"2
#600000
0!
0#
0;
#605000
1!
1#
1;
01
0E
0u
0L
03
1K
12
b00000000000000000000000000000000 v
b00000000000000000000000000000000 M
b00000000000000000000000000000000 4
b00000000000000000000000000000010 "+
0"1
1",
1O
17
b01000011 "*
b001001 ")
0"2
b01000011 "&
06
0F
0"0
#610000
0!
0#
0;
#615000
1!
1#
1;
1/
1C
0G
0H
0'
0+
1T
b00000000000000000000000001100100 0
b00000000000000000000000001100100 D
b00000000000000000000000000000001 "+
b00000000000000000000000000000001 t
#620000
0!
0#
0;
#625000
1!
1#
1;
0/
0C
1G
1H
1'
1+
0T
b00000000000000000000000000000000 0
b00000000000000000000000000000000 D
11
1E
1u
1L
13
0K
02
b00000000000000000000000000000001 v
b00000000000000000000000000000001 M
b00000000000000000000000000000001 4
b00000000000000000000000000000000 "+
1"1
b00000000000000000000000000000000 t
1"3
#630000
0!
0#
0;
#635000
1!
1#
1;
01
0E
0u
0L
03
1K
12
b00000000000000000000000000000000 v
b00000000000000000000000000000000 M
b00000000000000000000000000000000 4
b00000000000000000000000000000010 "+
0"1
0",
0O
07
0"-
0P
0:
b10000110 "*
b001010 ")
0"3
b10000110 "&
#640000
0!
0#
0;
#645000
1!
1#
1;
1/
1C
0G
0H
0'
0+
1T
b00000000000000000000000001100100 0
b00000000000000000000000001100100 D
b00000000000000000000000000000001 "+
b00000000000000000000000000000001 t
#650000
0!
0#
0;
#655000
1!
1#
1;
0/
0C
1G
1H
1'
1+
0T
b00000000000000000000000000000000 0
b00000000000000000000000000000000 D
11
1E
1u
1L
13
0K
02
b00000000000000000000000000000001 v
b00000000000000000000000000000001 M
b00000000000000000000000000000001 4
b00000000000000000000000000000000 "+
1"1
b00000000000000000000000000000000 t
1"2
#660000
0!
0#
0;
#665000
1!
1#
1;
01
0E
0u
0L
03
1K
12
b00000000000000000000000000000000 v
b00000000000000000000000000000000 M
b00000000000000000000000000000000 4
b00000000000000000000000000000010 "+
0"1
1",
1O
17
b001011 ")
0"2
16
1F
1"0
#670000
0!
0#
0;
#675000
1!
1#
1;
1/
1C
0G
0H
0'
0+
1T
b00000000000000000000000001100100 0
b00000000000000000000000001100100 D
b00000000000000000000000000000001 "+
b00000000000000000000000000000001 t
#680000
0!
0#
0;
#685000
1!
1#
1;
0/
0C
1G
1H
1'
1+
0T
b00000000000000000000000000000000 0
b00000000000000000000000000000000 D
11
1E
1u
1L
13
0K
02
b00000000000000000000000000000001 v
b00000000000000000000000000000001 M
b00000000000000000000000000000001 4
b00000000000000000000000000000000 "+
1"1
b00000000000000000000000000000000 t
1"3
#690000
0!
0#
0;
#695000
1!
1#
1;
01
0E
0u
0L
03
1K
12
b00000000000000000000000000000000 v
b00000000000000000000000000000000 M
b00000000000000000000000000000000 4
b00000000000000000000000000000010 "+
0"1
0",
0O
07
1"-
1P
1:
b00001100 "*
b001100 ")
0"3
b00001100 "&
#700000
0!
0#
0;
#705000
1!
1#
1;
1/
1C
0G
0H
0'
0+
1T
b00000000000000000000000001100100 0
b00000000000000000000000001100100 D
b00000000000000000000000000000001 "+
b00000000000000000000000000000001 t
#710000
0!
0#
0;
#715000
1!
1#
1;
0/
0C
1G
1H
1'
1+
0T
b00000000000000000000000000000000 0
b00000000000000000000000000000000 D
11
1E
1u
1L
13
0K
02
b00000000000000000000000000000001 v
b00000000000000000000000000000001 M
b00000000000000000000000000000001 4
b00000000000000000000000000000000 "+
1"1
b00000000000000000000000000000000 t
1"2
#720000
0!
0#
0;
#725000
1!
1#
1;
01
0E
0u
0L
03
1K
12
b00000000000000000000000000000000 v
b00000000000000000000000000000000 M
b00000000000000000000000000000000 4
b00000000000000000000000000000010 "+
0"1
1",
1O
17
b00001101 "*
b001101 ")
0"2
b00001101 "&
#730000
0!
0#
0;
#735000
1!
1#
1;
1/
1C
0G
0H
0'
0+
1T
b00000000000000000000000001100100 0
b00000000000000000000000001100100 D
b00000000000000000000000000000001 "+
b00000000000000000000000000000001 t
#740000
0!
0#
0;
#745000
1!
1#
1;
0/
0C
1G
1H
1'
1+
0T
b00000000000000000000000000000000 0
b00000000000000000000000000000000 D
11
1E
1u
1L
13
0K
02
b00000000000000000000000000000001 v
b00000000000000000000000000000001 M
b00000000000000000000000000000001 4
b00000000000000000000000000000000 "+
1"1
b00000000000000000000000000000000 t
1"3
#750000
0!
0#
0;
#755000
1!
1#
1;
01
0E
0u
0L
03
1K
12
b00000000000000000000000000000000 v
b00000000000000000000000000000000 M
b00000000000000000000000000000000 4
b00000000000000000000000000000010 "+
0"1
0",
0O
07
0"-
0P
0:
b00011010 "*
b001110 ")
0"3
b00011010 "&
#760000
0!
0#
0;
#765000
1!
1#
1;
1/
1C
0G
0H
0'
0+
1T
b00000000000000000000000001100100 0
b00000000000000000000000001100100 D
b00000000000000000000000000000001 "+
b00000000000000000000000000000001 t
#770000
0!
0#
0;
#775000
1!
1#
1;
0/
0C
1G
1H
1'
1+
0T
b00000000000000000000000000000000 0
b00000000000000000000000000000000 D
11
1E
1u
1L
13
0K
02
b00000000000000000000000000000001 v
b00000000000000000000000000000001 M
b00000000000000000000000000000001 4
b00000000000000000000000000000000 "+
1"1
b00000000000000000000000000000000 t
1"2
#780000
0!
0#
0;
#785000
1!
1#
1;
01
0E
0u
0L
03
1K
12
b00000000000000000000000000000000 v
b00000000000000000000000000000000 M
b00000000000000000000000000000000 4
b00000000000000000000000000000010 "+
0"1
1",
1O
17
b00011011 "*
b001111 ")
0"2
b00011011 "&
06
0F
0"0
#790000
0!
0#
0;
#795000
1!
1#
1;
1/
1C
0G
0H
0'
0+
1T
b00000000000000000000000001100100 0
b00000000000000000000000001100100 D
b00000000000000000000000000000001 "+
b00000000000000000000000000000001 t
#800000
0!
0#
0;
#805000
1!
1#
1;
0/
0C
1G
1H
1'
1+
0T
b00000000000000000000000000000000 0
b00000000000000000000000000000000 D
11
1E
1u
1L
13
0K
02
b00000000000000000000000000000001 v
b00000000000000000000000000000001 M
b00000000000000000000000000000001 4
b00000000000000000000000000000000 "+
1"1
b00000000000000000000000000000000 t
#810000
0!
0#
0;
#815000
1!
1#
1;
01
0E
0u
0L
03
1K
12
b00000000000000000000000000000000 v
b00000000000000000000000000000000 M
b00000000000000000000000000000000 4
b00000000000000000000000000000010 "+
0"1
0",
0O
07
0"(
1""
1"8
0"/
#820000
0!
0#
0;
#825000
1!
1#
1;
1/
1C
0G
0H
0'
0+
1T
b00000000000000000000000001100100 0
b00000000000000000000000001100100 D
b00000000000000000000000000000001 "+
0""
0"8
1"4
b01 "9
b11111111 "!
b001 ";
b00011011 s
b01 "=
b001 ">
1"%
0p
1"/
b11111111 "#
1"3
#830000
0!
0#
0;
#835000
1!
1#
1;
0/
0C
1G
1H
1'
1+
0T
b00000000000000000000000000000000 0
b00000000000000000000000000000000 D
11
1E
1u
1L
13
0K
02
b00000000000000000000000000000010 "+
1"-
1P
1:
b11111110 "*
b000000 ")
1"(
0"4
b11111110 "&
0"/
0"3
#840000
0!
0#
0;
#845000
1!
1#
1;
01
0E
0u
0L
03
1K
12
b00000000000000000000000000000001 "+
#850000
0!
0#
0;
#855000
1!
1#
1;
1/
1C
0G
0H
0'
0+
1T
b00000000000000000000000001101100 0
b00000000000000000000000001101100 D
b00000000000000000000000000000000 "+
1"1
b00000000000000000000000000011011 t
1y
1"2
#860000
0!
0#
0;
